-------------------------------------------------------------------------------
Test set: org.sonar.samples.java.checks.AvoidSuperClassCheckTest
-------------------------------------------------------------------------------
Tests run: 1, Failures: 0, Errors: 0, Skipped: 0, Time elapsed: 0.866 s - in org.sonar.samples.java.checks.AvoidSuperClassCheckTest
