-------------------------------------------------------------------------------
Test set: org.sonar.samples.java.checks.AvoidAnnotationCheckTest
-------------------------------------------------------------------------------
Tests run: 1, Failures: 0, Errors: 0, Skipped: 0, Time elapsed: 2.431 s - in org.sonar.samples.java.checks.AvoidAnnotationCheckTest
