-------------------------------------------------------------------------------
Test set: org.sonar.samples.java.checks.AvoidMethodDeclarationCheckTest
-------------------------------------------------------------------------------
Tests run: 1, Failures: 0, Errors: 0, Skipped: 0, Time elapsed: 0.178 s - in org.sonar.samples.java.checks.AvoidMethodDeclarationCheckTest
