C:\Users\Michael\Desktop\java-custom-rules\src\test\java\org\sonar\samples\java\checks\SecurityAnnotationMandatoryCheckTest.java
C:\Users\Michael\Desktop\java-custom-rules\src\test\java\org\sonar\samples\java\checks\AvoidSuperClassCheckTest.java
C:\Users\Michael\Desktop\java-custom-rules\src\test\java\org\sonar\samples\java\checks\AvoidAnnotationCheckTest.java
C:\Users\Michael\Desktop\java-custom-rules\src\test\java\org\sonar\samples\java\checks\AvoidBrandInMethodNamesCheckTest.java
C:\Users\Michael\Desktop\java-custom-rules\src\test\java\org\sonar\samples\java\checks\SpringControllerRequestMappingEntityRuleTest.java
C:\Users\Michael\Desktop\java-custom-rules\src\test\java\org\sonar\samples\java\checks\AvoidUnmodifiableListTest.java
C:\Users\Michael\Desktop\java-custom-rules\src\test\java\org\sonar\samples\java\MyJavaRulesDefinitionTest.java
C:\Users\Michael\Desktop\java-custom-rules\src\test\java\org\sonar\samples\java\checks\AvoidMethodDeclarationCheckTest.java
C:\Users\Michael\Desktop\java-custom-rules\src\test\java\org\sonar\samples\java\checks\CheckLowerCaseVariableRuleCheckTest.java
C:\Users\Michael\Desktop\java-custom-rules\src\test\java\org\sonar\samples\java\checks\MyCustomSubscriptionRuleTest.java
